astor==0.8.1
attrs==23.2.0
bandit==1.7.6
darglint==1.8.1
docutils==0.20.1
eradicate==2.3.0
flake8-assertive==2.1.0
flake8-blind-except==0.2.1
flake8-builtins==2.2.0
flake8-commas==2.1.0
flake8-comprehensions==3.14.0
flake8-debugger==4.1.2
flake8-deprecated==2.2.1
flake8-docstrings==1.7.0
flake8-eradicate==1.5.0
flake8-logging-format==0.9.0
flake8-polyfill==1.0.2
flake8-quotes==3.3.2
flake8-string-format==0.3.0
flake8-tidy-imports==4.10.0
flake8-tuple==0.4.1
gitdb==4.0.11
GitPython==3.1.41
isort==5.13.2
lazy-object-proxy==1.10.0
pbr==6.0.0
platformdirs==4.1.0
pydocstyle==6.3.0
Pygments==2.17.2
pylint==3.0.3
PyYAML==6.0.1
restructuredtext-lint==1.4.0
six==1.16.0
smmap==5.0.1
snowballstemmer==2.2.0
stevedore==5.1.0
toml==0.10.2
typing-extensions==4.9.0
wemake-python-styleguide==0.18.0
